GCD,Run 0,Run 1,Run 2,Run 3,Run 4,Run 5,Run 6,Run 7,Run 8,Run 9,Run 10,Run 11,Run 12,Run 13,Run 14,Run 15,Run 16,Run 17,Run 18,Run 19,Run 20,Run 21,Run 22,Run 23,Run 24,Run 25,Run 26,Run 27,Run 28,Run 29,Run 30,Run 31,Run 32,Run 33,Run 34,Run 35,Run 36,Run 37,Run 38,Run 39,Run 40,Run 41,Run 42,Run 43,Run 44,Run 45,Run 46,Run 47,Run 48,Run 49,Run 50,Run 51,Run 52,Run 53,Run 54,Run 55,Run 56,Run 57,Run 58,Run 59,Run 60,Run 61,Run 62,Run 63,Run 64,Run 65,Run 66,Run 67,Run 68,Run 69,Run 70,Run 71,Run 72,Run 73,Run 74,Total time
Input 1,2226406,2193827,2167083,2224896,2211146,2163760,2142941,2393062,2189448,2175989,2388309,2350019,2287900,2265774,2224967,2258049,2199060,5822537,2309932,2276685,2142443,2248237,2294136,2234515,2202457,2113096,2123615,2113222,2116374,2615928,2294520,2276234,2212935,2157505,2256912,2308289,2301096,2192737,2136344,2173751,2279551,2223746,2197792,2120703,2155809,2119375,2114212,2215511,2254192,2279401,2220179,2232038,2126341,2130833,2174180,2189788,2289722,2198432,2123109,2224195,2295286,2307662,2222937,2115465,2119133,2122356,2215494,2120875,2115637,2169593,2173859,2127333,2142120,2160787,2262598,169526380
Input 2,27686104,26662183,26115660,27229303,27077377,26127330,26618679,26132193,28741490,26485013,27366232,26202635,27329120,26328342,26415918,26517255,26491526,25992768,26219460,26327826,27811756,27763470,25864935,25938542,26183405,26702250,26045728,26246934,26117201,26771817,26974466,27514730,27145045,30426958,30557030,28837207,37716080,39071842,31368123,34784745,28143497,30663225,35140652,31018138,30604892,31543786,36569656,32498178,29224405,29303082,38657378,36560713,33079571,30040434,30005657,28013457,27958863,29761718,31495726,29072292,27705844,30281473,33340880,33605035,38841218,35302986,30449376,31746571,31446107,28848594,35044282,31401982,37042706,38294691,39951126,2246566869
Input 3,124129863,123344410,120663184,122495864,124000047,123555117,123677923,120434805,125598585,123806632,133878964,123191981,130658891,119527974,125568596,120646369,123680134,127452884,124357166,122323364,120599965,125082617,119461368,123308225,160943289,123214890,122691537,119779984,120876059,119661299,121612785,120455641,145023692,123400272,122941284,119921912,123080877,121949856,122046665,120956265,123129073,121247079,122450040,122243797,120440507,122359773,120011102,122130854,123156058,120706922,125250139,123213214,121507883,118981234,122182499,122854171,122557314,123655238,120238313,124228647,121907514,123479560,119758955,122509378,129344248,126526938,118299725,119242920,121018176,119481750,122490415,119557464,123178794,125319840,134050510,9268711279
Input 4,322739285,313231847,340339812,312042638,359564025,368960229,382874476,322312450,320765251,319317385,319093804,329229381,317397381,313678591,325237370,318107454,311734176,313449809,321350604,320574432,322718271,326390526,325669862,321874545,341869429,330172863,326869443,321795006,317924985,323533568,319810926,323020126,316107127,313575341,311589046,327278297,313981919,322425146,327778079,328894140,335238020,318546825,338413124,334253302,330165950,325298391,324507457,325403422,325793811,325162579,323484212,321811296,311014748,313238601,329758556,310159609,310531304,364029141,308424993,308909678,312263075,310266223,313377712,313043608,313675543,318720739,332897245,308715332,367923968,314694498,369888311,307445236,311857351,309775558,308693635,24312662098
